<?xml version="1.0" encoding="UTF-8"?>
<svg width="1600px" height="1600px" viewBox="0 0 1600 1600" version="1.1" xmlns="http://www.w3.org/2000/svg" xmlns:xlink="http://www.w3.org/1999/xlink">
    <!-- Generator: sketchtool 41 (35326) - http://www.bohemiancoding.com/sketch -->
    <title>contacto-0</title>
    <desc>Created with sketchtool.</desc>
    <defs></defs>
    <g id="iconos" stroke="none" stroke-width="1" fill="none" fill-rule="evenodd">
        <g id="contacto-0" fill="#333333">
            <path d="M250,500.005526 C250,444.773999 294.762768,400 349.999505,400 L1250.0005,400 C1305.2287,400 1350,444.761714 1350,500.005526 L1350,1099.99447 C1350,1155.226 1305.23723,1200 1250.0005,1200 L349.999505,1200 C294.771303,1200 250,1155.23829 250,1099.99447 L250,500.005526 Z M349.999505,450 C346.935249,450 343.93546,450.275547 341.023554,450.803222 L800,817.984379 L1258.97658,450.803118 C1256.06463,450.275508 1253.0648,450 1250.0005,450 L349.999505,450 Z M300,500.005526 L300,1099.99447 C300,1127.61953 322.381022,1150 349.999505,1150 L1250.0005,1150 C1277.61871,1150 1300,1127.61605 1300,1099.99447 L1300,500.005526 C1300,494.438826 1299.0912,489.085088 1297.41387,484.084524 L815.617376,869.52172 C806.48691,876.826093 793.51309,876.826093 784.382624,869.52172 L302.586504,484.084825 C300.908939,489.085465 300,494.439141 300,500.005526 Z" id="Combined-Shape"></path>
        </g>
    </g>
</svg>