<?xml version="1.0" encoding="UTF-8"?>
<svg width="1600px" height="1600px" viewBox="0 0 1600 1600" version="1.1" xmlns="http://www.w3.org/2000/svg" xmlns:xlink="http://www.w3.org/1999/xlink">
    <!-- Generator: sketchtool 41 (35326) - http://www.bohemiancoding.com/sketch -->
    <title>google+-i</title>
    <desc>Created with sketchtool.</desc>
    <defs></defs>
    <g id="iconos" stroke="none" stroke-width="1" fill="none" fill-rule="evenodd">
        <g id="google+-i" fill="#4A4A4A">
            <g id="Group" transform="translate(161.235095, 381.445760)">
                <path d="M413.829868,1.07736455 C515.880033,-3.6642466 611.809721,40.7408715 689.968919,103.11346 C656.608801,141.018209 622.066796,177.530022 585.161022,211.678064 C491.201143,146.744724 357.577757,128.186311 263.617878,203.193816 C129.206568,296.154721 123.086091,515.6477 252.375898,615.713986 C378.105978,729.808125 615.749338,673.162052 650.488323,498.468153 C571.738182,497.286268 492.77699,498.468153 414.026849,495.907402 C413.829868,448.927462 413.632887,401.947523 413.829868,354.981653 C545.483445,354.587691 677.137022,354.37664 808.98758,355.375615 C816.880885,465.910028 802.27616,583.549823 734.374037,674.93488 C631.535949,819.617335 425.085918,861.855664 264.011839,799.877037 C102.360888,738.292373 -12.1272122,567.552161 1.49260859,393.463275 C5.05233446,180.484735 200.851328,-6.02801714 413.829868,1.07736455 Z" id="Fill-20"></path>
                <path d="M1065.7803,236.342884 L1183.22311,236.342884 C1183.42009,275.626499 1183.61707,315.107095 1184.01103,354.37664 C1223.29465,354.784672 1262.77524,354.784672 1302.04479,355.178634 L1302.04479,472.621448 C1262.77524,473.01541 1223.49163,473.21239 1184.01103,473.606352 C1183.61707,513.072878 1183.42009,552.356493 1183.22311,591.640109 L1065.58331,591.640109 C1065.18935,552.356493 1065.18935,513.072878 1064.79539,473.803333 C1025.51178,473.409371 986.04525,473.01541 946.761635,472.621448 L946.761635,355.178634 C986.04525,354.784672 1025.3148,354.587691 1064.79539,354.37664 C1064.99237,314.910114 1065.38633,275.626499 1065.7803,236.342884" id="Fill-21"></path>
            </g>
        </g>
    </g>
</svg>